Module02
…
This is achieved using the dual-layered combination of group_by() and
summarise().

#Grouping our active memory penguins by species 
grouped_penguins <- group_by(penguins, species)

#Notice that the table looks identical, but the metadata notes 'Groups: species [3]' 
print(grouped_penguins)

## # A tibble: 344 × 8
## # Groups:   species [3]
##    species island    bill_length_mm bill_depth_mm flipper_length_mm body_mass_g
##    <fct>   <fct>              <dbl>         <dbl>             <int>       <int>
##  1 Adelie  Torgersen           39.1          18.7               181        3750
##  2 Adelie  Torgersen           39.5          17.4               186        3800
##  3 Adelie  Torgersen           40.3          18                 195        3250
##  4 Adelie  Torgersen           NA            NA                  NA          NA
##  5 Adelie  Torgersen           36.7          19.3               193        3450
##  6 Adelie  Torgersen           39.3          20.6               190        3650
##  7 Adelie  Torgersen           38.9          17.8               181        3625
##  8 Adelie  Torgersen           39.2          19.6               195        4675
##  9 Adelie  Torgersen           34.1          18.1               193        3475
## 10 Adelie  Torgersen           42            20.2               190        4250
## # ℹ 334 more rows
## # ℹ 2 more variables: sex <fct>, year <int>
…
#2.4 Lengthening Datasets pivot_longer() makes datasets “longer” by
increasing the number of rows and decreasing the number of columns,
solving those common problems of data values in the variable name (eg.
2k1, wk2, wk3 etc.) The table4 needs to be wrangled into ‘long’ format
(represented by the table on the left) in order to satisfy the 3 rules
of tidy data.

Lets see pivot_longer() in an example using the billboard dataset
records ranking songs in the year 2000.

billboard

## # A tibble: 317 × 79
##    artist     track date.entered   wk1   wk2   wk3   wk4   wk5   wk6   wk7   wk8
##    <chr>      <chr> <date>       <dbl> <dbl> <dbl> <dbl> <dbl> <dbl> <dbl> <dbl>
##  1 2 Pac      Baby… 2000-02-26      87    82    72    77    87    94    99    NA
##  2 2Ge+her    The … 2000-09-02      91    87    92    NA    NA    NA    NA    NA
##  3 3 Doors D… Kryp… 2000-04-08      81    70    68    67    66    57    54    53
##  4 3 Doors D… Loser 2000-10-21      76    76    72    69    67    65    55    59
##  5 504 Boyz   Wobb… 2000-04-15      57    34    25    17    17    31    36    49
##  6 98^0       Give… 2000-08-19      51    39    34    26    26    19     2     2
##  7 A*Teens    Danc… 2000-07-08      97    97    96    95   100    NA    NA    NA
##  8 Aaliyah    I Do… 2000-01-29      84    62    51    41    38    35    35    38
##  9 Aaliyah    Try … 2000-03-18      59    53    38    28    21    18    16    14
## 10 Adams, Yo… Open… 2000-08-26      76    76    74    69    68    67    61    58
## # ℹ 307 more rows
## # ℹ 68 more variables: wk9 <dbl>, wk10 <dbl>, wk11 <dbl>, wk12 <dbl>,
## #   wk13 <dbl>, wk14 <dbl>, wk15 <dbl>, wk16 <dbl>, wk17 <dbl>, wk18 <dbl>,
## #   wk19 <dbl>, wk20 <dbl>, wk21 <dbl>, wk22 <dbl>, wk23 <dbl>, wk24 <dbl>,
## #   wk25 <dbl>, wk26 <dbl>, wk27 <dbl>, wk28 <dbl>, wk29 <dbl>, wk30 <dbl>,
## #   wk31 <dbl>, wk32 <dbl>, wk33 <dbl>, wk34 <dbl>, wk35 <dbl>, wk36 <dbl>,
## #   wk37 <dbl>, wk38 <dbl>, wk39 <dbl>, wk40 <dbl>, wk41 <dbl>, wk42 <dbl>, …
…
billboard |> 
  pivot_longer(
    cols = starts_with("wk"),
    names_to = "week",
    values_to = "rank"
  )

## # A tibble: 24,092 × 5
##    artist track                   date.entered week   rank
##    <chr>  <chr>                   <date>       <chr> <dbl>
##  1 2 Pac  Baby Don't Cry (Keep... 2000-02-26   wk1      87
##  2 2 Pac  Baby Don't Cry (Keep... 2000-02-26   wk2      82
##  3 2 Pac  Baby Don't Cry (Keep... 2000-02-26   wk3      72
##  4 2 Pac  Baby Don't Cry (Keep... 2000-02-26   wk4      77
##  5 2 Pac  Baby Don't Cry (Keep... 2000-02-26   wk5      87
##  6 2 Pac  Baby Don't Cry (Keep... 2000-02-26   wk6      94
##  7 2 Pac  Baby Don't Cry (Keep... 2000-02-26   wk7      99
##  8 2 Pac  Baby Don't Cry (Keep... 2000-02-26   wk8      NA
##  9 2 Pac  Baby Don't Cry (Keep... 2000-02-26   wk9      NA
## 10 2 Pac  Baby Don't Cry (Keep... 2000-02-26   wk10     NA
## # ℹ 24,082 more rows
…
billboard |> 
  pivot_longer(
    cols = starts_with("wk"),
    names_to = "week",
    values_to = "rank", 
    values_drop_na = TRUE
  )

## # A tibble: 5,307 × 5
##    artist  track                   date.entered week   rank
##    <chr>   <chr>                   <date>       <chr> <dbl>
##  1 2 Pac   Baby Don't Cry (Keep... 2000-02-26   wk1      87
##  2 2 Pac   Baby Don't Cry (Keep... 2000-02-26   wk2      82
##  3 2 Pac   Baby Don't Cry (Keep... 2000-02-26   wk3      72
##  4 2 Pac   Baby Don't Cry (Keep... 2000-02-26   wk4      77
##  5 2 Pac   Baby Don't Cry (Keep... 2000-02-26   wk5      87
##  6 2 Pac   Baby Don't Cry (Keep... 2000-02-26   wk6      94
##  7 2 Pac   Baby Don't Cry (Keep... 2000-02-26   wk7      99
##  8 2Ge+her The Hardest Part Of ... 2000-09-02   wk1      91
##  9 2Ge+her The Hardest Part Of ... 2000-09-02   wk2      87
## 10 2Ge+her The Hardest Part Of ... 2000-09-02   wk3      92
## # ℹ 5,297 more rows
…
#2.5 Widening Datasets In less common cases, we may need to widen a
dataset rather than lengthen it. Widening is the opposite of lengthening
so we use the function pivot_wider(). It allows us to handle an
observation if it is scattered across multiple rows. We’ll use an
example to explore pivot_wider() looking at the cms_patient_experience
dataset from the Centres of Medicare and Medicaid .

cms_patient_experience

## # A tibble: 500 × 5
##    org_pac_id org_nm                           measure_cd measure_title prf_rate
##    <chr>      <chr>                            <chr>      <chr>            <dbl>
##  1 0446157747 USC CARE MEDICAL GROUP INC       CAHPS_GRP… CAHPS for MI…       63
##  2 0446157747 USC CARE MEDICAL GROUP INC       CAHPS_GRP… CAHPS for MI…       87
##  3 0446157747 USC CARE MEDICAL GROUP INC       CAHPS_GRP… CAHPS for MI…       86
##  4 0446157747 USC CARE MEDICAL GROUP INC       CAHPS_GRP… CAHPS for MI…       57
##  5 0446157747 USC CARE MEDICAL GROUP INC       CAHPS_GRP… CAHPS for MI…       85
##  6 0446157747 USC CARE MEDICAL GROUP INC       CAHPS_GRP… CAHPS for MI…       24
##  7 0446162697 ASSOCIATION OF UNIVERSITY PHYSI… CAHPS_GRP… CAHPS for MI…       59
##  8 0446162697 ASSOCIATION OF UNIVERSITY PHYSI… CAHPS_GRP… CAHPS for MI…       85
##  9 0446162697 ASSOCIATION OF UNIVERSITY PHYSI… CAHPS_GRP… CAHPS for MI…       83
## 10 0446162697 ASSOCIATION OF UNIVERSITY PHYSI… CAHPS_GRP… CAHPS for MI…       63
## # ℹ 490 more rows
…
Neither of the columns name great variable names i.e. measure_cd
doesn’t hint at the meaning of the variable and measure_title is a long
sentence containing spaces. pivot_wider() has the opposite interface to
pivot_longer():_from) and the column name (names_from).

cms_patient_experience |>
  pivot_wider(
    names_from = measure_cd, 
    values_from = prf_rate
  )

## # A tibble: 500 × 9
##    org_pac_id org_nm           measure_title CAHPS_GRP_1 CAHPS_GRP_2 CAHPS_GRP_3
##    <chr>      <chr>            <chr>               <dbl>       <dbl>       <dbl>
##  1 0446157747 USC CARE MEDICA… CAHPS for MI…          63          NA          NA
##  2 0446157747 USC CARE MEDICA… CAHPS for MI…          NA          87          NA
##  3 0446157747 USC CARE MEDICA… CAHPS for MI…          NA          NA          86
##  4 0446157747 USC CARE MEDICA… CAHPS for MI…          NA          NA          NA
##  5 0446157747 USC CARE MEDICA… CAHPS for MI…          NA          NA          NA
##  6 0446157747 USC CARE MEDICA… CAHPS for MI…          NA          NA          NA
##  7 0446162697 ASSOCIATION OF … CAHPS for MI…          59          NA          NA
##  8 0446162697 ASSOCIATION OF … CAHPS for MI…          NA          85          NA
##  9 0446162697 ASSOCIATION OF … CAHPS for MI…          NA          NA          83
## 10 0446162697 ASSOCIATION OF … CAHPS for MI…          NA          NA          NA
## # ℹ 490 more rows
## # ℹ 3 more variables: CAHPS_GRP_5 <dbl>, CAHPS_GRP_8 <dbl>, CAHPS_GRP_12 <dbl>

The above output doesn’t look quite right, we still seem to have
multiple rows for each organisation. That’s beacause, we also need to
tell pivot_wider() which column or columns have values that uniquely
identify each row, in this case those are the variables starting with
“org”:

cms_patient_experience |>
  pivot_wider(
    id_cols = starts_with("org"),
    names_from = measure_cd,
    values_from = prf_rate
  )

## # A tibble: 95 × 8
##    org_pac_id org_nm CAHPS_GRP_1 CAHPS_GRP_2 CAHPS_GRP_3 CAHPS_GRP_5 CAHPS_GRP_8
##    <chr>      <chr>        <dbl>       <dbl>       <dbl>       <dbl>       <dbl>
##  1 0446157747 USC C…          63          87          86          57          85
##  2 0446162697 ASSOC…          59          85          83          63          88
##  3 0547164295 BEAVE…          49          NA          75          44          73
##  4 0749333730 CAPE …          67          84          85          65          82
##  5 0840104360 ALLIA…          66          87          87          64          87
##  6 0840109864 REX H…          73          87          84          67          91
##  7 0840513552 SCL H…          58          83          76          58          78
##  8 0941545784 GRITM…          46          86          81          54          NA
##  9 1052612785 COMMU…          65          84          80          58          87
## 10 1254237779 OUR L…          61          NA          NA          65          NA
## # ℹ 85 more rows
## # ℹ 1 more variable: CAHPS_GRP_12 <dbl>
…
